<?xml version="1.0" encoding="UTF-8"?>
<model ref="00000000-0000-4000-5f02-5beb5f025beb/i:ff35b35(checkpoints/PlanningLanguage.typesystem@descriptorclasses)">
  <persistence version="9" />
  <attribute name="checkpoint" value="DescriptorClasses" />
  <attribute name="generation-plan" value="AspectCPS" />
  <languages />
  <imports>
    <import index="2yzm" ref="r:8811342a-9976-4f00-a3e0-1e83d3ec6f0b(PlanningLanguage.typesystem)" />
    <import index="qurh" ref="6ed54515-acc8-4d1e-a16c-9fd6cfe951ea/java:jetbrains.mps.lang.typesystem.runtime(MPS.Core/)" />
  </imports>
  <registry>
    <language id="f3061a53-9226-4cc5-a443-f952ceaf5816" name="jetbrains.mps.baseLanguage">
      <concept id="1068390468198" name="jetbrains.mps.baseLanguage.structure.ClassConcept" flags="ig" index="312cEu">
        <child id="1165602531693" name="superclass" index="1zkMxy" />
      </concept>
      <concept id="1068580123132" name="jetbrains.mps.baseLanguage.structure.BaseMethodDeclaration" flags="ng" index="3clF44">
        <child id="1068580123133" name="returnType" index="3clF45" />
        <child id="1068580123135" name="body" index="3clF47" />
      </concept>
      <concept id="1068580123136" name="jetbrains.mps.baseLanguage.structure.StatementList" flags="sn" stub="5293379017992965193" index="3clFbS" />
      <concept id="1068580123140" name="jetbrains.mps.baseLanguage.structure.ConstructorDeclaration" flags="ig" index="3clFbW" />
      <concept id="1068581517677" name="jetbrains.mps.baseLanguage.structure.VoidType" flags="in" index="3cqZAl" />
      <concept id="1107461130800" name="jetbrains.mps.baseLanguage.structure.Classifier" flags="ng" index="3pOWGL">
        <child id="5375687026011219971" name="member" index="jymVt" unordered="true" />
      </concept>
      <concept id="1107535904670" name="jetbrains.mps.baseLanguage.structure.ClassifierType" flags="in" index="3uibUv">
        <reference id="1107535924139" name="classifier" index="3uigEE" />
      </concept>
      <concept id="1178549954367" name="jetbrains.mps.baseLanguage.structure.IVisible" flags="ng" index="1B3ioH">
        <child id="1178549979242" name="visibility" index="1B3o_S" />
      </concept>
      <concept id="1146644602865" name="jetbrains.mps.baseLanguage.structure.PublicVisibility" flags="nn" index="3Tm1VV" />
    </language>
    <language id="b401a680-8325-4110-8fd3-84331ff25bef" name="jetbrains.mps.lang.generator">
      <concept id="3864140621129707969" name="jetbrains.mps.lang.generator.structure.GeneratorDebug_Mappings" flags="nn" index="39dXUE">
        <child id="3864140621129713349" name="labels" index="39e2AI" />
      </concept>
      <concept id="3864140621129713351" name="jetbrains.mps.lang.generator.structure.GeneratorDebug_NodeMapEntry" flags="nn" index="39e2AG">
        <property id="5843998055530255671" name="isNewRoot" index="2mV_xN" />
        <child id="3864140621129713365" name="outputNode" index="39e2AY" />
      </concept>
      <concept id="3864140621129713348" name="jetbrains.mps.lang.generator.structure.GeneratorDebug_LabelEntry" flags="nn" index="39e2AJ">
        <property id="3864140621129715945" name="label" index="39e3Y2" />
        <child id="3864140621129715947" name="entries" index="39e3Y0" />
      </concept>
      <concept id="3864140621129713362" name="jetbrains.mps.lang.generator.structure.GeneratorDebug_NodeRef" flags="nn" index="39e2AT">
        <reference id="3864140621129713363" name="node" index="39e2AS" />
      </concept>
    </language>
    <language id="ceab5195-25ea-4f22-9b92-103b95ca8c0c" name="jetbrains.mps.lang.core">
      <concept id="1169194658468" name="jetbrains.mps.lang.core.structure.INamedConcept" flags="ng" index="TrEIO">
        <property id="1169194664001" name="name" index="TrG5h" />
      </concept>
    </language>
  </registry>
  <node concept="39dXUE" id="0">
    <node concept="39e2AJ" id="1" role="39e2AI">
      <property role="39e3Y2" value="descriptorClass" />
      <node concept="39e2AG" id="2" role="39e3Y0">
        <property role="2mV_xN" value="true" />
        <node concept="39e2AT" id="3" role="39e2AY">
          <ref role="39e2AS" node="4" resolve="TypesystemDescriptor" />
        </node>
      </node>
    </node>
  </node>
  <node concept="312cEu" id="4">
    <property role="TrG5h" value="TypesystemDescriptor" />
    <node concept="3clFbW" id="5" role="jymVt">
      <node concept="3clFbS" id="8" role="3clF47" />
      <node concept="3Tm1VV" id="9" role="1B3o_S" />
      <node concept="3cqZAl" id="a" role="3clF45" />
    </node>
    <node concept="3Tm1VV" id="6" role="1B3o_S" />
    <node concept="3uibUv" id="7" role="1zkMxy">
      <ref role="3uigEE" to="qurh:~BaseHelginsDescriptor" resolve="BaseHelginsDescriptor" />
    </node>
  </node>
</model>

